{
  "ReRoutes": [
    {
      "DownstreamPathTemplate": "/api/Compliance/",
      "DownstreamScheme": "http",
      "DownstreamHostAndPorts": [
        {
          "Host": "scacompliance",
          "Port": 80
        }
      ],
      "UpstreamPathTemplate": "/Conformidade/",
      "UpstreamHttpMethod": [ "Get" ],
      "AuthenticationOptions": {
        "AuthenticationProviderKey": "SCAAutenticacao",
        "AllowedScopes": []
      }
    },
    {
      "DownstreamPathTemplate": "/api/Compliance/{id}",
      "DownstreamScheme": "http",
      "DownstreamHostAndPorts": [
        {
          "Host": "scacompliance",
          "Port": 80
        }
      ],
      "UpstreamPathTemplate": "/Conformidade/{id}",
      "UpstreamHttpMethod": [ "Get" ],
      "AuthenticationOptions": {
        "AuthenticationProviderKey": "SCAAutenticacao",
        "AllowedScopes": []
      }
    },
    //{
    //  "DownstreamPathTemplate": "/identity",
    //  "DownstreamScheme": "http",
    //  "DownstreamHostAndPorts": [
    //    {
    //      "Host": "scacompliance",
    //      "Port": 80
    //    }
    //  ],
    //  "UpstreamPathTemplate": "/teste/",
    //  "UpstreamHttpMethod": [ "Get" ]
    //},
    //{
    //  "DownstreamPathTemplate": "/identity",
    //  "DownstreamScheme": "http",
    //  "DownstreamHostAndPorts": [
    //    {
    //      "Host": "scacontroleativos",
    //      "Port": 80
    //    }
    //  ],
    //  "UpstreamPathTemplate": "/identity/",
    //  "UpstreamHttpMethod": [ "Get" ]
    //},
    {
      "DownstreamPathTemplate": "/api/Ativos",
      "DownstreamScheme": "http",
      "DownstreamHostAndPorts": [
        {
          "Host": "scaativos",
          "Port": 80
        }
      ],
      "UpstreamPathTemplate": "/Ativos/",
      "UpstreamHttpMethod": [ "Get" ],
      "AuthenticationOptions": {
        "AuthenticationProviderKey": "SCAAutenticacao",
        "AllowedScopes": []
      }
    },
    {
      "DownstreamPathTemplate": "/api/Ativos/{id}",
      "DownstreamScheme": "http",
      "DownstreamHostAndPorts": [
        {
          "Host": "scaativos",
          "Port": 80
        }
      ],
      "UpstreamPathTemplate": "/Ativos/{id}",
      "UpstreamHttpMethod": [ "Get" ],
      "AuthenticationOptions": {
        "AuthenticationProviderKey": "SCAAutenticacao",
        "AllowedScopes": []
      }
    },
    {
      "DownstreamPathTemplate": "/api/InteligenciaNegocio/",
      "DownstreamScheme": "http",
      "DownstreamHostAndPorts": [
        {
          "Host": "scainteligencianegocio",
          "Port": 80
        }
      ],
      "UpstreamPathTemplate": "/InteligenciaNegocio/",
      "UpstreamHttpMethod": [ "Get" ],
      "AuthenticationOptions": {
        "AuthenticationProviderKey": "SCAAutenticacao",
        "AllowedScopes": []
      }
    },
    {
      "DownstreamPathTemplate": "/api/InteligenciaNegocio/{id}",
      "DownstreamScheme": "http",
      "DownstreamHostAndPorts": [
        {
          "Host": "scainteligencianegocio",
          "Port": 80
        }
      ],
      "UpstreamPathTemplate": "/InteligenciaNegocio/{id}",
      "UpstreamHttpMethod": [ "Get" ],
      "AuthenticationOptions": {
        "AuthenticationProviderKey": "SCAAutenticacao",
        "AllowedScopes": []
      }
    },
    {
      "DownstreamPathTemplate": "/api/Monitoramento/",
      "DownstreamScheme": "http",
      "DownstreamHostAndPorts": [
        {
          "Host": "scamonitoramento",
          "Port": 80
        }
      ],
      "UpstreamPathTemplate": "/Monitoramento/",
      "UpstreamHttpMethod": [ "Get" ],
      "AuthenticationOptions": {
        "AuthenticationProviderKey": "SCAAutenticacao",
        "AllowedScopes": []
      }
    },
    {
      "DownstreamPathTemplate": "/api/Monitoramento/{id}",
      "DownstreamScheme": "http",
      "DownstreamHostAndPorts": [
        {
          "Host": "scamonitoramento",
          "Port": 80
        }
      ],
      "UpstreamPathTemplate": "/Monitoramento/{id}",
      "UpstreamHttpMethod": [ "Get" ],
      "AuthenticationOptions": {
        "AuthenticationProviderKey": "SCAAutenticacao",
        "AllowedScopes": []
      }
    },
    {
      "DownstreamPathTemplate": "/api/Seguranca/",
      "DownstreamScheme": "http",
      "DownstreamHostAndPorts": [
        {
          "Host": "scaseguranca",
          "Port": 80
        }
      ],
      "UpstreamPathTemplate": "/Seguranca/",
      "UpstreamHttpMethod": [ "Get" ],
      "AuthenticationOptions": {
        "AuthenticationProviderKey": "SCAAutenticacao",
        "AllowedScopes": []
      }
    },
    {
      "DownstreamPathTemplate": "/api/Seguranca/{id}",
      "DownstreamScheme": "http",
      "DownstreamHostAndPorts": [
        {
          "Host": "scaseguranca",
          "Port": 80
        }
      ],
      "UpstreamPathTemplate": "/Seguranca/{id}",
      "UpstreamHttpMethod": [ "Get" ],
      "AuthenticationOptions": {
        "AuthenticationProviderKey": "SCAAutenticacao",
        "AllowedScopes": []
      }
    },
    {
      "DownstreamPathTemplate": "/api/ProcessoMinerario/",
      "DownstreamScheme": "http",
      "DownstreamHostAndPorts": [
        {
          "Host": "scaprocessominerario",
          "Port": 80
        }
      ],
      "UpstreamPathTemplate": "/ProcessoMinerario/",
      "UpstreamHttpMethod": [ "Get" ],
      "AuthenticationOptions": {
        "AuthenticationProviderKey": "SCAAutenticacao",
        "AllowedScopes": []
      }
    },
    {
      "DownstreamPathTemplate": "/api/ProcessoMinerario/{id}",
      "DownstreamScheme": "http",
      "DownstreamHostAndPorts": [
        {
          "Host": "scaprocessominerario",
          "Port": 80
        }
      ],
      "UpstreamPathTemplate": "/ProcessoMinerario/{id}",
      "UpstreamHttpMethod": [ "Get" ],
      "AuthenticationOptions": {
        "AuthenticationProviderKey": "SCAAutenticacao",
        "AllowedScopes": []
      }
    }
  ],
  "GlobalConfiguration": {}
}